{
    "modules": [
        {
            "config": {
                "position": [
                    863,
                    14
                ]
            },
            "name": "New Model Object",
            "value": {
                "actionGroup": {
                    "_default0_list": true,
                    "_default1_show": true,
                    "_default2_new_create": false,
                    "_default3_edit_update": false,
                    "_default4_delete": false,
                    "customActions": []
                },
                "name": "Movie",
                "objectsettings": {
                    "addDeletedField": true,
                    "addHiddenField": true,
                    "addStarttimeEndtimeFields": true,
                    "aggregateRoot": true,
                    "categorizable": false,
                    "description": "",
                    "mapToTable": "",
                    "parentClass": "",
                    "sorting": false,
                    "type": "Entity",
                    "uid": "611486593529"
                },
                "propertyGroup": {
                    "properties": [
                        {
                            "allowedFileTypes": "",
                            "maxItems": "1",
                            "propertyDescription": "",
                            "propertyIsExcludeField": true,
                            "propertyIsL10nModeExclude": false,
                            "propertyIsRequired": false,
                            "propertyName": "title",
                            "propertyType": "String",
                            "uid": "580495431835"
                        },
                        {
                            "allowedFileTypes": "",
                            "maxItems": "12",
                            "propertyDescription": "",
                            "propertyIsExcludeField": true,
                            "propertyIsL10nModeExclude": false,
                            "propertyIsRequired": false,
                            "propertyName": "image",
                            "propertyType": "Image",
                            "uid": "387030834936"
                        },
                        {
                            "allowedFileTypes": "",
                            "maxItems": "1",
                            "propertyDescription": "",
                            "propertyIsExcludeField": true,
                            "propertyIsL10nModeExclude": false,
                            "propertyIsRequired": false,
                            "propertyName": "hauptprogramm",
                            "propertyType": "Boolean",
                            "uid": "60041512449"
                        },
                        {
                            "allowedFileTypes": "",
                            "maxItems": "1",
                            "propertyDescription": "",
                            "propertyIsExcludeField": true,
                            "propertyIsL10nModeExclude": false,
                            "propertyIsRequired": false,
                            "propertyName": "kinderprogramm",
                            "propertyType": "Boolean",
                            "uid": "60041512449"
                        },
                        {
                            "allowedFileTypes": "",
                            "maxItems": "1",
                            "propertyDescription": "",
                            "propertyIsExcludeField": true,
                            "propertyIsL10nModeExclude": false,
                            "propertyIsRequired": false,
                            "propertyName": "jungedoks",
                            "propertyType": "Boolean",
                            "uid": "1320016072432"
                        },
                        {
                            "allowedFileTypes": "",
                            "maxItems": "1",
                            "propertyDescription": "",
                            "propertyIsExcludeField": true,
                            "propertyIsL10nModeExclude": false,
                            "propertyIsRequired": false,
                            "propertyName": "country",
                            "propertyType": "String",
                            "uid": "496167054672"
                        },
                        {
                            "allowedFileTypes": "",
                            "maxItems": "1",
                            "propertyDescription": "",
                            "propertyIsExcludeField": true,
                            "propertyIsL10nModeExclude": false,
                            "propertyIsRequired": false,
                            "propertyName": "year",
                            "propertyType": "String",
                            "uid": "1060651391897"
                        },
                        {
                            "allowedFileTypes": "",
                            "maxItems": "1",
                            "propertyDescription": "",
                            "propertyIsExcludeField": true,
                            "propertyIsL10nModeExclude": false,
                            "propertyIsRequired": false,
                            "propertyName": "length",
                            "propertyType": "String",
                            "uid": "622508433582"
                        },
                        {
                            "allowedFileTypes": "",
                            "maxItems": "1",
                            "propertyDescription": "",
                            "propertyIsExcludeField": true,
                            "propertyIsL10nModeExclude": false,
                            "propertyIsRequired": false,
                            "propertyName": "omu",
                            "propertyType": "Boolean",
                            "uid": "1450785381089"
                        },
                        {
                            "allowedFileTypes": "",
                            "maxItems": "1",
                            "propertyDescription": "",
                            "propertyIsExcludeField": true,
                            "propertyIsL10nModeExclude": false,
                            "propertyIsRequired": false,
                            "propertyName": "involved",
                            "propertyType": "RichText",
                            "uid": "782271453322"
                        },
                        {
                            "allowedFileTypes": "",
                            "maxItems": "1",
                            "propertyDescription": "",
                            "propertyIsExcludeField": true,
                            "propertyIsL10nModeExclude": false,
                            "propertyIsRequired": false,
                            "propertyName": "description",
                            "propertyType": "RichText",
                            "uid": "104942576427"
                        },
                        {
                            "allowedFileTypes": "",
                            "maxItems": "1",
                            "propertyDescription": "",
                            "propertyIsExcludeField": true,
                            "propertyIsL10nModeExclude": false,
                            "propertyIsRequired": false,
                            "propertyName": "prices",
                            "propertyType": "RichText",
                            "uid": "774191434236"
                        }
                    ]
                },
                "relationGroup": {
                    "relations": [
                        {
                            "foreignRelationClass": "",
                            "lazyLoading": false,
                            "propertyIsExcludeField": true,
                            "relationDescription": "",
                            "relationName": "collection",
                            "relationType": "manyToMany",
                            "relationWire": "[wired]",
                            "renderType": "selectMultipleSideBySide",
                            "uid": "50676880484"
                        },
                        {
                            "foreignRelationClass": "",
                            "lazyLoading": false,
                            "propertyIsExcludeField": true,
                            "relationDescription": "",
                            "relationName": "presentation",
                            "relationType": "zeroToMany",
                            "relationWire": "[wired]",
                            "renderType": "inline",
                            "uid": "1208611784541"
                        },
                        {
                            "foreignRelationClass": "",
                            "lazyLoading": false,
                            "propertyIsExcludeField": true,
                            "relationDescription": "",
                            "relationName": "video",
                            "relationType": "zeroToMany",
                            "relationWire": "[wired]",
                            "renderType": "inline",
                            "uid": "285828473275"
                        }
                    ]
                }
            }
        },
        {
            "config": {
                "position": [
                    36,
                    518
                ]
            },
            "name": "New Model Object",
            "value": {
                "actionGroup": {
                    "_default0_list": false,
                    "_default1_show": false,
                    "_default2_new_create": false,
                    "_default3_edit_update": false,
                    "_default4_delete": false,
                    "customActions": []
                },
                "name": "Day",
                "objectsettings": {
                    "addDeletedField": true,
                    "addHiddenField": true,
                    "addStarttimeEndtimeFields": true,
                    "aggregateRoot": true,
                    "categorizable": false,
                    "description": "",
                    "mapToTable": "",
                    "parentClass": "",
                    "sorting": false,
                    "type": "Entity",
                    "uid": "1277269618641"
                },
                "propertyGroup": {
                    "properties": [
                        {
                            "allowedFileTypes": "",
                            "maxItems": "1",
                            "propertyDescription": "",
                            "propertyIsExcludeField": true,
                            "propertyIsL10nModeExclude": false,
                            "propertyIsRequired": false,
                            "propertyName": "date",
                            "propertyType": "NativeDate",
                            "uid": "1420420692247"
                        }
                    ]
                },
                "relationGroup": {
                    "relations": []
                }
            }
        },
        {
            "config": {
                "position": [
                    410,
                    306
                ]
            },
            "name": "New Model Object",
            "value": {
                "actionGroup": {
                    "_default0_list": false,
                    "_default1_show": false,
                    "_default2_new_create": false,
                    "_default3_edit_update": false,
                    "_default4_delete": false,
                    "customActions": []
                },
                "name": "Presentation",
                "objectsettings": {
                    "addDeletedField": true,
                    "addHiddenField": true,
                    "addStarttimeEndtimeFields": true,
                    "aggregateRoot": true,
                    "categorizable": false,
                    "description": "",
                    "mapToTable": "",
                    "parentClass": "",
                    "sorting": false,
                    "type": "Entity",
                    "uid": "1235229927263"
                },
                "propertyGroup": {
                    "properties": [
                        {
                            "allowedFileTypes": "",
                            "maxItems": "1",
                            "propertyDescription": "",
                            "propertyIsExcludeField": true,
                            "propertyIsL10nModeExclude": false,
                            "propertyIsRequired": false,
                            "propertyName": "time",
                            "propertyType": "Time",
                            "uid": "1352365326726"
                        }
                    ]
                },
                "relationGroup": {
                    "relations": [
                        {
                            "foreignRelationClass": "",
                            "lazyLoading": false,
                            "propertyIsExcludeField": true,
                            "relationDescription": "",
                            "relationName": "day",
                            "relationType": "manyToOne",
                            "relationWire": "[wired]",
                            "renderType": "selectSingle",
                            "uid": "103367645927"
                        },
                        {
                            "foreignRelationClass": "",
                            "lazyLoading": false,
                            "propertyIsExcludeField": true,
                            "relationDescription": "",
                            "relationName": "branch",
                            "relationType": "manyToMany",
                            "relationWire": "[wired]",
                            "renderType": "selectCheckBox",
                            "uid": "1088315585529"
                        }
                    ]
                }
            }
        },
        {
            "config": {
                "position": [
                    951,
                    430
                ]
            },
            "name": "New Model Object",
            "value": {
                "actionGroup": {
                    "_default0_list": false,
                    "_default1_show": false,
                    "_default2_new_create": false,
                    "_default3_edit_update": false,
                    "_default4_delete": false,
                    "customActions": []
                },
                "name": "Video",
                "objectsettings": {
                    "addDeletedField": true,
                    "addHiddenField": true,
                    "addStarttimeEndtimeFields": true,
                    "aggregateRoot": false,
                    "categorizable": false,
                    "description": "",
                    "mapToTable": "",
                    "parentClass": "",
                    "sorting": false,
                    "type": "Entity",
                    "uid": "807496030745"
                },
                "propertyGroup": {
                    "properties": [
                        {
                            "allowedFileTypes": "",
                            "maxItems": "1",
                            "propertyDescription": "",
                            "propertyIsExcludeField": true,
                            "propertyIsL10nModeExclude": false,
                            "propertyIsRequired": false,
                            "propertyName": "title",
                            "propertyType": "String",
                            "uid": "1524618548050"
                        },
                        {
                            "allowedFileTypes": "",
                            "maxItems": "1",
                            "propertyDescription": "",
                            "propertyIsExcludeField": true,
                            "propertyIsL10nModeExclude": false,
                            "propertyIsRequired": false,
                            "propertyName": "description",
                            "propertyType": "Text",
                            "uid": "111915730029"
                        },
                        {
                            "allowedFileTypes": "",
                            "maxItems": "1",
                            "propertyDescription": "",
                            "propertyIsExcludeField": true,
                            "propertyIsL10nModeExclude": false,
                            "propertyIsRequired": false,
                            "propertyName": "still",
                            "propertyType": "Image",
                            "uid": "1268091453435"
                        },
                        {
                            "allowedFileTypes": "",
                            "maxItems": "1",
                            "propertyDescription": "",
                            "propertyIsExcludeField": true,
                            "propertyIsL10nModeExclude": false,
                            "propertyIsRequired": false,
                            "propertyName": "mp4source",
                            "propertyType": "File",
                            "uid": "379042190287"
                        },
                        {
                            "allowedFileTypes": "",
                            "maxItems": "1",
                            "propertyDescription": "",
                            "propertyIsExcludeField": true,
                            "propertyIsL10nModeExclude": false,
                            "propertyIsRequired": false,
                            "propertyName": "webmsource",
                            "propertyType": "File",
                            "uid": "1098039781273"
                        },
                        {
                            "allowedFileTypes": "",
                            "maxItems": "1",
                            "propertyDescription": "",
                            "propertyIsExcludeField": true,
                            "propertyIsL10nModeExclude": false,
                            "propertyIsRequired": false,
                            "propertyName": "oggsource",
                            "propertyType": "File",
                            "uid": "210955886166"
                        }
                    ]
                },
                "relationGroup": {
                    "relations": []
                }
            }
        },
        {
            "config": {
                "position": [
                    406,
                    32
                ]
            },
            "name": "New Model Object",
            "value": {
                "actionGroup": {
                    "_default0_list": false,
                    "_default1_show": false,
                    "_default2_new_create": false,
                    "_default3_edit_update": false,
                    "_default4_delete": false,
                    "customActions": []
                },
                "name": "Collection",
                "objectsettings": {
                    "addDeletedField": true,
                    "addHiddenField": true,
                    "addStarttimeEndtimeFields": true,
                    "aggregateRoot": true,
                    "categorizable": false,
                    "description": "",
                    "mapToTable": "",
                    "parentClass": "",
                    "sorting": false,
                    "type": "Entity",
                    "uid": "1106947901380"
                },
                "propertyGroup": {
                    "properties": [
                        {
                            "allowedFileTypes": "",
                            "maxItems": "1",
                            "propertyDescription": "",
                            "propertyIsExcludeField": true,
                            "propertyIsL10nModeExclude": false,
                            "propertyIsRequired": false,
                            "propertyName": "title",
                            "propertyType": "String",
                            "uid": "554902407791"
                        },
                        {
                            "allowedFileTypes": "",
                            "maxItems": "1",
                            "propertyDescription": "",
                            "propertyIsExcludeField": true,
                            "propertyIsL10nModeExclude": false,
                            "propertyIsRequired": false,
                            "propertyName": "description",
                            "propertyType": "RichText",
                            "uid": "796678821971"
                        },
                        {
                            "allowedFileTypes": "",
                            "maxItems": "1",
                            "propertyDescription": "",
                            "propertyIsExcludeField": true,
                            "propertyIsL10nModeExclude": false,
                            "propertyIsRequired": false,
                            "propertyName": "image",
                            "propertyType": "Image",
                            "uid": "854109907320"
                        },
                        {
                            "allowedFileTypes": "",
                            "maxItems": "1",
                            "propertyDescription": "",
                            "propertyIsExcludeField": true,
                            "propertyIsL10nModeExclude": false,
                            "propertyIsRequired": false,
                            "propertyName": "listDescription",
                            "propertyType": "Text",
                            "uid": "1487906463418"
                        }
                    ]
                },
                "relationGroup": {
                    "relations": [
                        {
                            "foreignRelationClass": "",
                            "lazyLoading": false,
                            "propertyIsExcludeField": true,
                            "relationDescription": "",
                            "relationName": "presentation",
                            "relationType": "zeroToMany",
                            "relationWire": "[wired]",
                            "renderType": "inline",
                            "uid": "79599066823"
                        }
                    ]
                }
            }
        },
        {
            "config": {
                "position": [
                    355,
                    542
                ]
            },
            "name": "New Model Object",
            "value": {
                "actionGroup": {
                    "_default0_list": false,
                    "_default1_show": false,
                    "_default2_new_create": false,
                    "_default3_edit_update": false,
                    "_default4_delete": false,
                    "customActions": []
                },
                "name": "Branch",
                "objectsettings": {
                    "addDeletedField": true,
                    "addHiddenField": true,
                    "addStarttimeEndtimeFields": true,
                    "aggregateRoot": true,
                    "categorizable": false,
                    "description": "",
                    "mapToTable": "",
                    "parentClass": "",
                    "sorting": false,
                    "type": "Entity",
                    "uid": "284236420614"
                },
                "propertyGroup": {
                    "properties": [
                        {
                            "allowedFileTypes": "",
                            "maxItems": "1",
                            "propertyDescription": "",
                            "propertyIsExcludeField": true,
                            "propertyIsL10nModeExclude": false,
                            "propertyIsRequired": false,
                            "propertyName": "title",
                            "propertyType": "String",
                            "uid": "744848535657"
                        }
                    ]
                },
                "relationGroup": {
                    "relations": []
                }
            }
        }
    ],
    "properties": {
        "backendModules": [
            {
                "actions": {
                    "controllerActionCombinations": ""
                },
                "description": "",
                "key": "nonfiktionaleprogram",
                "mainModule": "web",
                "name": "nonfiktionale programm",
                "tabLabel": "Programm"
            }
        ],
        "description": "",
        "emConf": {
            "category": "plugin",
            "custom_category": "",
            "dependsOn": "typo3 => 9.5.0-9.5.99\n",
            "disableLocalization": false,
            "disableVersioning": false,
            "skipGenerateDocumentationTemplate": false,
            "sourceLanguage": "en",
            "state": "alpha",
            "targetVersion": "9.5.0-9.5.99",
            "version": "1.0.0"
        },
        "extensionKey": "nonfiktionalemovies",
        "name": "nonfiktionale movies",
        "originalExtensionKey": "nonfiktionalemovies",
        "originalVendorName": "Dasoe",
        "persons": [
            {
                "company": "",
                "email": "christian.oettinger@gmx.de",
                "name": "das oe",
                "role": "Developer"
            }
        ],
        "plugins": [
            {
                "actions": {
                    "controllerActionCombinations": "",
                    "noncacheableActions": "",
                    "switchableActions": ""
                },
                "description": "",
                "key": "movies",
                "name": "show movies"
            }
        ],
        "vendorName": "Dasoe"
    },
    "wires": [
        {
            "src": {
                "moduleId": 2,
                "terminal": "relationWire_0",
                "uid": "103367645927"
            },
            "tgt": {
                "moduleId": 1,
                "terminal": "SOURCES",
                "uid": "1277269618641"
            }
        },
        {
            "src": {
                "moduleId": 0,
                "terminal": "relationWire_1",
                "uid": "1208611784541"
            },
            "tgt": {
                "moduleId": 2,
                "terminal": "SOURCES",
                "uid": "1235229927263"
            }
        },
        {
            "src": {
                "moduleId": 0,
                "terminal": "relationWire_2",
                "uid": "285828473275"
            },
            "tgt": {
                "moduleId": 3,
                "terminal": "SOURCES",
                "uid": "807496030745"
            }
        },
        {
            "src": {
                "moduleId": 0,
                "terminal": "relationWire_0",
                "uid": "50676880484"
            },
            "tgt": {
                "moduleId": 4,
                "terminal": "SOURCES",
                "uid": "1106947901380"
            }
        },
        {
            "src": {
                "moduleId": 4,
                "terminal": "relationWire_0",
                "uid": "79599066823"
            },
            "tgt": {
                "moduleId": 2,
                "terminal": "SOURCES",
                "uid": "1235229927263"
            }
        },
        {
            "src": {
                "moduleId": 2,
                "terminal": "relationWire_1",
                "uid": "1088315585529"
            },
            "tgt": {
                "moduleId": 5,
                "terminal": "SOURCES",
                "uid": "284236420614"
            }
        }
    ],
    "log": {
        "last_modified": "2019-12-02 03:10",
        "extension_builder_version": "9.10.0",
        "be_user": " (3)"
    }
}